(kicad_sch
	(version 20231120)
	(generator "eeschema")
	(generator_version "8.0")
	(uuid "6cb5d638-2263-403f-9ea2-8b4bd3ba8279")
	(paper "A4")
	(title_block
		(title "<<kicad-template-project>>")
		(date "<<date>>")
		(rev "A0")
		(comment 1 "<<author>>")
	)
	(lib_symbols)
	(polyline
		(pts
			(xy 88.9 12.065) (xy 88.9 19.05)
		)
		(stroke
			(width 0)
			(type solid)
		)
		(uuid "2fecdabd-336b-40fc-9388-06db5f54108a")
	)
	(polyline
		(pts
			(xy 12.065 19.05) (xy 88.9 19.05)
		)
		(stroke
			(width 0)
			(type solid)
		)
		(uuid "42f185c2-5f95-4d3c-8511-43c7bf4beead")
	)
	(polyline
		(pts
			(xy 12.065 25.4) (xy 31.75 25.4)
		)
		(stroke
			(width 0)
			(type solid)
		)
		(uuid "ad1eda87-904b-4e18-8546-96794f601fe6")
	)
	(polyline
		(pts
			(xy 31.75 12.065) (xy 31.75 25.4)
		)
		(stroke
			(width 0)
			(type solid)
		)
		(uuid "c4523656-fd69-407d-94e8-1da38922229f")
	)
	(polyline
		(pts
			(xy 31.75 25.4) (xy 88.9 25.4)
		)
		(stroke
			(width 0)
			(type solid)
		)
		(uuid "d33c949c-df2d-4a95-9742-05685ee5517c")
	)
	(polyline
		(pts
			(xy 88.9 25.4) (xy 88.9 19.05)
		)
		(stroke
			(width 0)
			(type solid)
		)
		(uuid "ed481ed3-cb75-452d-a198-335b27c3ed8e")
	)
	(text "A0"
		(exclude_from_sim no)
		(at 13.335 23.495 0)
		(effects
			(font
				(size 1.5 1.5)
			)
			(justify left bottom)
		)
		(uuid "1769527e-befd-4dde-879a-283ea71509b9")
	)
	(text "Initial version"
		(exclude_from_sim no)
		(at 33.02 23.495 0)
		(effects
			(font
				(size 1.5 1.5)
			)
			(justify left bottom)
		)
		(uuid "1c42823c-ac14-489f-ac60-3be42c9e4adb")
	)
	(text "Revision"
		(exclude_from_sim no)
		(at 12.7 17.145 0)
		(effects
			(font
				(size 2 2)
				(thickness 0.3)
				(bold yes)
			)
			(justify left bottom)
		)
		(uuid "22222f67-cc88-4260-8ee6-16bddc8f6e56")
	)
	(text "Changelog"
		(exclude_from_sim no)
		(at 32.385 17.145 0)
		(effects
			(font
				(size 2 2)
				(thickness 0.3)
				(bold yes)
			)
			(justify left bottom)
		)
		(uuid "23014181-49a1-4252-9f77-7a432d1c7d9b")
	)
	(sheet_instances
		(path "/"
			(page "1")
		)
	)
)
